[
  {
    "directory": "/home/mark/git-repos/personal-repos/quadruped/catkin_ws/build/joystick_controller",
    "command": "/usr/bin/c++  -DROSCONSOLE_BACKEND_LOG4CXX -DROS_BUILD_SHARED_LIBS=1 -DROS_PACKAGE_NAME=\\\"joystick_controller\\\" -I/opt/ros/noetic/include -I/opt/ros/noetic/share/xmlrpcpp/cmake/../../../include/xmlrpcpp -I/home/mark/git-repos/personal-repos/quadruped/catkin_ws/src/joystick_controller/include/joystick_controller  -O3 -DNDEBUG   -std=c++11 -std=gnu++14 -o CMakeFiles/joystick_controller_node.dir/src/joystick_controller.cc.o -c /home/mark/git-repos/personal-repos/quadruped/catkin_ws/src/joystick_controller/src/joystick_controller.cc",
    "file": "/home/mark/git-repos/personal-repos/quadruped/catkin_ws/src/joystick_controller/src/joystick_controller.cc"
  },
  {
    "directory": "/home/mark/git-repos/personal-repos/quadruped/catkin_ws/build/joystick_controller/gtest/googlemock",
    "command": "/usr/bin/c++  -DGTEST_CREATE_SHARED_LIBRARY=1 -Dgmock_main_EXPORTS -isystem /usr/src/googletest/googlemock/include -isystem /usr/src/googletest/googlemock -isystem /usr/src/googletest/googletest/include -isystem /usr/src/googletest/googletest  -O3 -DNDEBUG -fPIC   -Wall -Wshadow -Wno-error=dangling-else -DGTEST_HAS_PTHREAD=1 -fexceptions -Wextra -Wno-unused-parameter -Wno-missing-field-initializers -std=c++11 -DGTEST_HAS_PTHREAD=1 -std=c++11 -o CMakeFiles/gmock_main.dir/src/gmock_main.cc.o -c /usr/src/googletest/googlemock/src/gmock_main.cc",
    "file": "/usr/src/googletest/googlemock/src/gmock_main.cc"
  },
  {
    "directory": "/home/mark/git-repos/personal-repos/quadruped/catkin_ws/build/joystick_controller/gtest/googlemock",
    "command": "/usr/bin/c++  -DGTEST_CREATE_SHARED_LIBRARY=1 -Dgmock_EXPORTS -I/usr/src/googletest/googlemock/include -I/usr/src/googletest/googlemock -isystem /usr/src/googletest/googletest/include -isystem /usr/src/googletest/googletest  -O3 -DNDEBUG -fPIC   -Wall -Wshadow -Wno-error=dangling-else -DGTEST_HAS_PTHREAD=1 -fexceptions -Wextra -Wno-unused-parameter -Wno-missing-field-initializers -std=c++11 -DGTEST_HAS_PTHREAD=1 -std=c++11 -o CMakeFiles/gmock.dir/src/gmock-all.cc.o -c /usr/src/googletest/googlemock/src/gmock-all.cc",
    "file": "/usr/src/googletest/googlemock/src/gmock-all.cc"
  },
  {
    "directory": "/home/mark/git-repos/personal-repos/quadruped/catkin_ws/build/joystick_controller/gtest/googletest",
    "command": "/usr/bin/c++  -DGTEST_CREATE_SHARED_LIBRARY=1 -Dgtest_main_EXPORTS -isystem /usr/src/googletest/googletest/include -isystem /usr/src/googletest/googletest  -O3 -DNDEBUG -fPIC   -Wall -Wshadow -Wno-error=dangling-else -DGTEST_HAS_PTHREAD=1 -fexceptions -Wextra -Wno-unused-parameter -Wno-missing-field-initializers -std=c++11 -DGTEST_HAS_PTHREAD=1 -std=c++11 -o CMakeFiles/gtest_main.dir/src/gtest_main.cc.o -c /usr/src/googletest/googletest/src/gtest_main.cc",
    "file": "/usr/src/googletest/googletest/src/gtest_main.cc"
  },
  {
    "directory": "/home/mark/git-repos/personal-repos/quadruped/catkin_ws/build/joystick_controller/gtest/googletest",
    "command": "/usr/bin/c++  -DGTEST_CREATE_SHARED_LIBRARY=1 -Dgtest_EXPORTS -I/usr/src/googletest/googletest/include -I/usr/src/googletest/googletest  -O3 -DNDEBUG -fPIC   -Wall -Wshadow -Wno-error=dangling-else -DGTEST_HAS_PTHREAD=1 -fexceptions -Wextra -Wno-unused-parameter -Wno-missing-field-initializers -std=c++11 -std=c++11 -o CMakeFiles/gtest.dir/src/gtest-all.cc.o -c /usr/src/googletest/googletest/src/gtest-all.cc",
    "file": "/usr/src/googletest/googletest/src/gtest-all.cc"
  },
  {
    "directory": "/home/mark/git-repos/personal-repos/quadruped/catkin_ws/build/motion_controller",
    "command": "/usr/bin/c++  -DROSCONSOLE_BACKEND_LOG4CXX -DROS_BUILD_SHARED_LIBS=1 -DROS_PACKAGE_NAME=\\\"motion_controller\\\" -I/home/mark/git-repos/personal-repos/quadruped/catkin_ws/src/motion_controller/include/motion_controller -I/opt/ros/noetic/include -I/opt/ros/noetic/share/xmlrpcpp/cmake/../../../include/xmlrpcpp -I/home/mark/git-repos/personal-repos/quadruped/catkin_ws/src/motion_controller/libs/ik_solver/include  -O3 -DNDEBUG   -std=c++11 -std=gnu++14 -o CMakeFiles/motion_controller_node.dir/src/motion_controller.cpp.o -c /home/mark/git-repos/personal-repos/quadruped/catkin_ws/src/motion_controller/src/motion_controller.cpp",
    "file": "/home/mark/git-repos/personal-repos/quadruped/catkin_ws/src/motion_controller/src/motion_controller.cpp"
  },
  {
    "directory": "/home/mark/git-repos/personal-repos/quadruped/catkin_ws/build/motion_controller/gtest/googlemock",
    "command": "/usr/bin/c++  -DGTEST_CREATE_SHARED_LIBRARY=1 -Dgmock_main_EXPORTS -isystem /usr/src/googletest/googlemock/include -isystem /usr/src/googletest/googlemock -isystem /usr/src/googletest/googletest/include -isystem /usr/src/googletest/googletest  -O3 -DNDEBUG -fPIC   -Wall -Wshadow -Wno-error=dangling-else -DGTEST_HAS_PTHREAD=1 -fexceptions -Wextra -Wno-unused-parameter -Wno-missing-field-initializers -std=c++11 -DGTEST_HAS_PTHREAD=1 -std=c++11 -o CMakeFiles/gmock_main.dir/src/gmock_main.cc.o -c /usr/src/googletest/googlemock/src/gmock_main.cc",
    "file": "/usr/src/googletest/googlemock/src/gmock_main.cc"
  },
  {
    "directory": "/home/mark/git-repos/personal-repos/quadruped/catkin_ws/build/motion_controller/gtest/googlemock",
    "command": "/usr/bin/c++  -DGTEST_CREATE_SHARED_LIBRARY=1 -Dgmock_EXPORTS -I/usr/src/googletest/googlemock/include -I/usr/src/googletest/googlemock -isystem /usr/src/googletest/googletest/include -isystem /usr/src/googletest/googletest  -O3 -DNDEBUG -fPIC   -Wall -Wshadow -Wno-error=dangling-else -DGTEST_HAS_PTHREAD=1 -fexceptions -Wextra -Wno-unused-parameter -Wno-missing-field-initializers -std=c++11 -DGTEST_HAS_PTHREAD=1 -std=c++11 -o CMakeFiles/gmock.dir/src/gmock-all.cc.o -c /usr/src/googletest/googlemock/src/gmock-all.cc",
    "file": "/usr/src/googletest/googlemock/src/gmock-all.cc"
  },
  {
    "directory": "/home/mark/git-repos/personal-repos/quadruped/catkin_ws/build/motion_controller/gtest/googletest",
    "command": "/usr/bin/c++  -DGTEST_CREATE_SHARED_LIBRARY=1 -Dgtest_main_EXPORTS -isystem /usr/src/googletest/googletest/include -isystem /usr/src/googletest/googletest  -O3 -DNDEBUG -fPIC   -Wall -Wshadow -Wno-error=dangling-else -DGTEST_HAS_PTHREAD=1 -fexceptions -Wextra -Wno-unused-parameter -Wno-missing-field-initializers -std=c++11 -DGTEST_HAS_PTHREAD=1 -std=c++11 -o CMakeFiles/gtest_main.dir/src/gtest_main.cc.o -c /usr/src/googletest/googletest/src/gtest_main.cc",
    "file": "/usr/src/googletest/googletest/src/gtest_main.cc"
  },
  {
    "directory": "/home/mark/git-repos/personal-repos/quadruped/catkin_ws/build/motion_controller/gtest/googletest",
    "command": "/usr/bin/c++  -DGTEST_CREATE_SHARED_LIBRARY=1 -Dgtest_EXPORTS -I/usr/src/googletest/googletest/include -I/usr/src/googletest/googletest  -O3 -DNDEBUG -fPIC   -Wall -Wshadow -Wno-error=dangling-else -DGTEST_HAS_PTHREAD=1 -fexceptions -Wextra -Wno-unused-parameter -Wno-missing-field-initializers -std=c++11 -std=c++11 -o CMakeFiles/gtest.dir/src/gtest-all.cc.o -c /usr/src/googletest/googletest/src/gtest-all.cc",
    "file": "/usr/src/googletest/googletest/src/gtest-all.cc"
  },
  {
    "directory": "/home/mark/git-repos/personal-repos/quadruped/catkin_ws/build/motion_controller/libs/ik_solver",
    "command": "/usr/bin/c++  -DROSCONSOLE_BACKEND_LOG4CXX -DROS_BUILD_SHARED_LIBS=1 -DROS_PACKAGE_NAME=\\\"motion_controller\\\" -Dik_solver_EXPORTS -I/opt/ros/noetic/include -I/opt/ros/noetic/share/xmlrpcpp/cmake/../../../include/xmlrpcpp -I/home/mark/git-repos/personal-repos/quadruped/catkin_ws/src/motion_controller/libs/ik_solver/../../include/motion_controller -I/home/mark/git-repos/personal-repos/quadruped/catkin_ws/src/motion_controller/libs/ik_solver/include  -O3 -DNDEBUG -fPIC   -std=c++11 -std=gnu++11 -o CMakeFiles/ik_solver.dir/src/ik_solver.cpp.o -c /home/mark/git-repos/personal-repos/quadruped/catkin_ws/src/motion_controller/libs/ik_solver/src/ik_solver.cpp",
    "file": "/home/mark/git-repos/personal-repos/quadruped/catkin_ws/src/motion_controller/libs/ik_solver/src/ik_solver.cpp"
  },
  {
    "directory": "/home/mark/git-repos/personal-repos/quadruped/catkin_ws/build/servo_driver/gtest/googlemock",
    "command": "/usr/bin/c++  -DGTEST_CREATE_SHARED_LIBRARY=1 -Dgmock_main_EXPORTS -isystem /usr/src/googletest/googlemock/include -isystem /usr/src/googletest/googlemock -isystem /usr/src/googletest/googletest/include -isystem /usr/src/googletest/googletest  -O3 -DNDEBUG -fPIC   -Wall -Wshadow -Wno-error=dangling-else -DGTEST_HAS_PTHREAD=1 -fexceptions -Wextra -Wno-unused-parameter -Wno-missing-field-initializers -DGTEST_HAS_PTHREAD=1 -std=c++11 -o CMakeFiles/gmock_main.dir/src/gmock_main.cc.o -c /usr/src/googletest/googlemock/src/gmock_main.cc",
    "file": "/usr/src/googletest/googlemock/src/gmock_main.cc"
  },
  {
    "directory": "/home/mark/git-repos/personal-repos/quadruped/catkin_ws/build/servo_driver/gtest/googlemock",
    "command": "/usr/bin/c++  -DGTEST_CREATE_SHARED_LIBRARY=1 -Dgmock_EXPORTS -I/usr/src/googletest/googlemock/include -I/usr/src/googletest/googlemock -isystem /usr/src/googletest/googletest/include -isystem /usr/src/googletest/googletest  -O3 -DNDEBUG -fPIC   -Wall -Wshadow -Wno-error=dangling-else -DGTEST_HAS_PTHREAD=1 -fexceptions -Wextra -Wno-unused-parameter -Wno-missing-field-initializers -DGTEST_HAS_PTHREAD=1 -std=c++11 -o CMakeFiles/gmock.dir/src/gmock-all.cc.o -c /usr/src/googletest/googlemock/src/gmock-all.cc",
    "file": "/usr/src/googletest/googlemock/src/gmock-all.cc"
  },
  {
    "directory": "/home/mark/git-repos/personal-repos/quadruped/catkin_ws/build/servo_driver/gtest/googletest",
    "command": "/usr/bin/c++  -DGTEST_CREATE_SHARED_LIBRARY=1 -Dgtest_main_EXPORTS -isystem /usr/src/googletest/googletest/include -isystem /usr/src/googletest/googletest  -O3 -DNDEBUG -fPIC   -Wall -Wshadow -Wno-error=dangling-else -DGTEST_HAS_PTHREAD=1 -fexceptions -Wextra -Wno-unused-parameter -Wno-missing-field-initializers -DGTEST_HAS_PTHREAD=1 -std=c++11 -o CMakeFiles/gtest_main.dir/src/gtest_main.cc.o -c /usr/src/googletest/googletest/src/gtest_main.cc",
    "file": "/usr/src/googletest/googletest/src/gtest_main.cc"
  },
  {
    "directory": "/home/mark/git-repos/personal-repos/quadruped/catkin_ws/build/servo_driver/gtest/googletest",
    "command": "/usr/bin/c++  -DGTEST_CREATE_SHARED_LIBRARY=1 -Dgtest_EXPORTS -I/usr/src/googletest/googletest/include -I/usr/src/googletest/googletest  -O3 -DNDEBUG -fPIC   -Wall -Wshadow -Wno-error=dangling-else -DGTEST_HAS_PTHREAD=1 -fexceptions -Wextra -Wno-unused-parameter -Wno-missing-field-initializers -std=c++11 -o CMakeFiles/gtest.dir/src/gtest-all.cc.o -c /usr/src/googletest/googletest/src/gtest-all.cc",
    "file": "/usr/src/googletest/googletest/src/gtest-all.cc"
  },
  {
    "directory": "/home/mark/git-repos/personal-repos/quadruped/catkin_ws/build/urdf/gtest/googlemock",
    "command": "/usr/bin/c++  -DGTEST_CREATE_SHARED_LIBRARY=1 -Dgmock_main_EXPORTS -isystem /usr/src/googletest/googlemock/include -isystem /usr/src/googletest/googlemock -isystem /usr/src/googletest/googletest/include -isystem /usr/src/googletest/googletest  -O3 -DNDEBUG -fPIC   -Wall -Wshadow -Wno-error=dangling-else -DGTEST_HAS_PTHREAD=1 -fexceptions -Wextra -Wno-unused-parameter -Wno-missing-field-initializers -DGTEST_HAS_PTHREAD=1 -std=c++11 -o CMakeFiles/gmock_main.dir/src/gmock_main.cc.o -c /usr/src/googletest/googlemock/src/gmock_main.cc",
    "file": "/usr/src/googletest/googlemock/src/gmock_main.cc"
  },
  {
    "directory": "/home/mark/git-repos/personal-repos/quadruped/catkin_ws/build/urdf/gtest/googlemock",
    "command": "/usr/bin/c++  -DGTEST_CREATE_SHARED_LIBRARY=1 -Dgmock_EXPORTS -I/usr/src/googletest/googlemock/include -I/usr/src/googletest/googlemock -isystem /usr/src/googletest/googletest/include -isystem /usr/src/googletest/googletest  -O3 -DNDEBUG -fPIC   -Wall -Wshadow -Wno-error=dangling-else -DGTEST_HAS_PTHREAD=1 -fexceptions -Wextra -Wno-unused-parameter -Wno-missing-field-initializers -DGTEST_HAS_PTHREAD=1 -std=c++11 -o CMakeFiles/gmock.dir/src/gmock-all.cc.o -c /usr/src/googletest/googlemock/src/gmock-all.cc",
    "file": "/usr/src/googletest/googlemock/src/gmock-all.cc"
  },
  {
    "directory": "/home/mark/git-repos/personal-repos/quadruped/catkin_ws/build/urdf/gtest/googletest",
    "command": "/usr/bin/c++  -DGTEST_CREATE_SHARED_LIBRARY=1 -Dgtest_main_EXPORTS -isystem /usr/src/googletest/googletest/include -isystem /usr/src/googletest/googletest  -O3 -DNDEBUG -fPIC   -Wall -Wshadow -Wno-error=dangling-else -DGTEST_HAS_PTHREAD=1 -fexceptions -Wextra -Wno-unused-parameter -Wno-missing-field-initializers -DGTEST_HAS_PTHREAD=1 -std=c++11 -o CMakeFiles/gtest_main.dir/src/gtest_main.cc.o -c /usr/src/googletest/googletest/src/gtest_main.cc",
    "file": "/usr/src/googletest/googletest/src/gtest_main.cc"
  },
  {
    "directory": "/home/mark/git-repos/personal-repos/quadruped/catkin_ws/build/urdf/gtest/googletest",
    "command": "/usr/bin/c++  -DGTEST_CREATE_SHARED_LIBRARY=1 -Dgtest_EXPORTS -I/usr/src/googletest/googletest/include -I/usr/src/googletest/googletest  -O3 -DNDEBUG -fPIC   -Wall -Wshadow -Wno-error=dangling-else -DGTEST_HAS_PTHREAD=1 -fexceptions -Wextra -Wno-unused-parameter -Wno-missing-field-initializers -std=c++11 -o CMakeFiles/gtest.dir/src/gtest-all.cc.o -c /usr/src/googletest/googletest/src/gtest-all.cc",
    "file": "/usr/src/googletest/googletest/src/gtest-all.cc"
  }
]
